{
    "Security.framework": 3,
    "SystemConfiguration.framework": 5,
    "CoreTelephony.framework": 5,
    "CoreMotion.framework": 1,
    "CFNetwork.framework": 3,
    "libc++.tbd": 2,
    "libz.tbd": 4,
    "CoreText.framework": 1,
    "UIKit.framework": 2,
    "QuartzCore.framework": 1,
    "Foundation.framework": 2,
    "SafariServices.framework": 1,
    "ImageIO.framework": 1,
    "CoreLocation.framework": 1,
    "AVFoundation.framework": 1,
    "WebKit.framework": 1,
    "libresolv.tbd": 2,
    "libresolv.9.tbd": 1,
    "libsqlite3.0.tbd": 1,
    "Webkit.framework": 1,
    "libc++.1.tbd": 1,
    "libsqlite3.tbd": 1,
    "CoreFoundation.framework": 1,
    "AdSupport.framework": 1,
    "UserNotifications.framework": 1,
    "MediaAccessibility.framework": 1
}